{
  "type": "service_account",
  "project_id": "afleveringsprojekt",
  "private_key_id": "385544579aebb067c8aeb9d15422dc6391c4e910",
  "private_key": "-----BEGIN PRIVATE KEY-----\nMIIEvQIBADANBgkqhkiG9w0BAQEFAASCBKcwggSjAgEAAoIBAQDtG246LKbpBLF+\npellyssv1bFDCtiMHRW/wP4R4ZO4VU7e442Sg4kmocQpUoUi3BElIEFiSLpnqhtx\nJHe90QsaZsrhpPqwy/20KT3QBo7XISVU16Q3vQsUf2UAk0zuEwbvHJdtspqkFuPs\na1thapnjhAOYcGtIayBadc7KaIXY+wm1d5BpWuiNZEd7mSiHN8JKED8DyQ0jpXLl\nLPxvAi/DI4cE0CfpDN9z91tCtiNSLPDnSCu0WOdU2ZhD7GqkYiyxv1zAHGG/IQlS\nLxlpI2UjLj7R4kYWBlRhlz6AUZvIX6OKFj/gaAcfRgTZQ6s6srHFMS2nRRQwX1nV\n3LiQzCTrAgMBAAECggEAaJh9rycMeGWsIRjylYd4y8DCYjdSILkh44Ww7tVqc1oa\noWOTi+r/oS2iWbI/7glTfOO2RDOeG2XklixGsFMbyUlIPXMobb6HTCcXUAHcmFVU\nYRGBrV71GNU8Cp1wRePZ3rhnqqor4rAAWsZfOOGsQjv11BTflsI/MvieQRcL2JPI\nKY45xK7gfXM2M+0Y5//kuDli9f5AoMlUZj0hky0JIV15L/jtODyYPjLucp29WzYE\n5i5CSbirswklm4mEyoygJjBN5gJYjrZGkUsvFOPPQfxv179Sj2HopRDwT8nzqUEZ\nOKX3fojtTwNrPTQuk29+V3M8fm0e82Bj6flXJjL8TQKBgQD5YI6BxS6RZ/zhW9Gz\nIbAiMsVWv78hGCu49nms4l9heFb4TQSmIGH3L/Ra4NgXUs1t6PCYohjJpD4IrCy7\nQQr0uWSFrwnNxLncc7vsO6et54PmEfu/3fk0pdGZ7slwDsMv0twWHhGco3WrVmBR\nuUOWDAdxOubRPudDBL8lvWaZDwKBgQDzZ3QcpWqBOwoCW+kC5tXf0Zp+XdKHcHq9\nEQNRCMWjauWuzwLzR8AkPMaVRvpOvMtJzoUMl4WOkgvZS4ZI3qMjj6sEIqtnh8cT\ncQKB9Vk3OClc8xtjzE8y93HPXd/bZnl3ajbfTFMLKlsBq2C8twuknKZGxoYESA3J\nqSfMxH4eZQKBgGAgFg5zoWWvPczohcaU373u8B5mPxhUptXfPDul7ro1luCTX41h\nwiF0PK6jKOikpEcPmV5cbU2cn8TcCUoM4lo+9D6LoC3O/Q27Ft8Sh6oDKdaPbAkj\nWSIwIMFDSCaHqjlPAEMOSB+m6n6nBu25ihHWhS/iUoKpyp8Mv1mezmOFAoGAbqas\nKU2lokQVo8bmobQQrGQcCLBcQcgHdCXkzRTgzA6Pha2EGNaYaaDbYgdXSS4YeGAT\nKgtD4vFPw6PK0xurLEJmq0WbiEA4ZwUr76p6uVilrSSzYeYCZxgIPA3f81ydgYTe\nlxqacev6XULsgj3wZA/2oxwi1pVu9ysX9cWp0+UCgYEAlgMqSj8sSPLIigPoySwj\nezg4kWauf4Hne2vsGbnIpEcnsifOZ6M2E7F1c7pEPs62ANTsjQJxJvUyfRALW9BJ\nmuO0sb4HzJnBEAxvlWxahuT36IIrafDF9DR40S1iWYlfZjwNx0+hrILc2U1HCtjh\nz0rfIB1FERx/bWTB8XXaTcY=\n-----END PRIVATE KEY-----\n",
  "client_email": "accesuserdata@afleveringsprojekt.iam.gserviceaccount.com",
  "client_id": "114422096462768583747",
  "auth_uri": "https://accounts.google.com/o/oauth2/auth",
  "token_uri": "https://oauth2.googleapis.com/token",
  "auth_provider_x509_cert_url": "https://www.googleapis.com/oauth2/v1/certs",
  "client_x509_cert_url": "https://www.googleapis.com/robot/v1/metadata/x509/accesuserdata%40afleveringsprojekt.iam.gserviceaccount.com"
}
